…
> # }
> 
> # match_list <- map(unique(not_merged$name), check_name)
> # map_lgl(match_list, ~ length(.x) == 1)
> # Answer: not that many...?
> 
> # Check if there are any duplicate instances
> id_merge %>%
+     select(year, member_id2, name) %>%
+     unique() %>%
+     group_by(name, year) %>%
+     summarise(ids = length(member_id2 %>% unique())) %>%
+     arrange(-ids)
`summarise()` has grouped output by 'name'. You can override using the `.groups` argument.
# A tibble: 3,065 × 3
# Groups:   name [1,199]
   name       year   ids
   <chr>     <int> <int>
 1 j buller   1802     3
 2 j buller   1806     3
 3 j lowther  1806     3
 4 j lowther  1807     3
 5 j lowther  1812     3
 6 g anson    1820     2
 7 g anson    1826     2
 8 g anson    1830     2
 9 g anson    1831     2
10 g canning  1818     2
# … with 3,055 more rows
…
